-- Merging decision tree log ---
manifest
ADDED from C:\Users\3Embed\DJ\data\New Dj\new live\android vaidg doctor\druidx-android-doctor-app\lib\src\main\AndroidManifest.xml:1:1-9:12
INJECTED from C:\Users\3Embed\DJ\data\New Dj\new live\android vaidg doctor\druidx-android-doctor-app\lib\src\main\AndroidManifest.xml:1:1-9:12
INJECTED from C:\Users\3Embed\DJ\data\New Dj\new live\android vaidg doctor\druidx-android-doctor-app\lib\src\main\AndroidManifest.xml:1:1-9:12
	package
		ADDED from C:\Users\3Embed\DJ\data\New Dj\new live\android vaidg doctor\druidx-android-doctor-app\lib\src\main\AndroidManifest.xml:2:5-45
		INJECTED from C:\Users\3Embed\DJ\data\New Dj\new live\android vaidg doctor\druidx-android-doctor-app\lib\src\main\AndroidManifest.xml
		INJECTED from C:\Users\3Embed\DJ\data\New Dj\new live\android vaidg doctor\druidx-android-doctor-app\lib\src\main\AndroidManifest.xml
	xmlns:android
		ADDED from C:\Users\3Embed\DJ\data\New Dj\new live\android vaidg doctor\druidx-android-doctor-app\lib\src\main\AndroidManifest.xml:1:11-69
application
ADDED from C:\Users\3Embed\DJ\data\New Dj\new live\android vaidg doctor\druidx-android-doctor-app\lib\src\main\AndroidManifest.xml:4:5-7:19
	android:label
		ADDED from C:\Users\3Embed\DJ\data\New Dj\new live\android vaidg doctor\druidx-android-doctor-app\lib\src\main\AndroidManifest.xml:5:9-41
	android:allowBackup
		ADDED from C:\Users\3Embed\DJ\data\New Dj\new live\android vaidg doctor\druidx-android-doctor-app\lib\src\main\AndroidManifest.xml:4:18-44
uses-sdk
INJECTED from C:\Users\3Embed\DJ\data\New Dj\new live\android vaidg doctor\druidx-android-doctor-app\lib\src\main\AndroidManifest.xml reason: use-sdk injection requested
INJECTED from C:\Users\3Embed\DJ\data\New Dj\new live\android vaidg doctor\druidx-android-doctor-app\lib\src\main\AndroidManifest.xml
INJECTED from C:\Users\3Embed\DJ\data\New Dj\new live\android vaidg doctor\druidx-android-doctor-app\lib\src\main\AndroidManifest.xml
INJECTED from C:\Users\3Embed\DJ\data\New Dj\new live\android vaidg doctor\druidx-android-doctor-app\lib\src\main\AndroidManifest.xml
INJECTED from C:\Users\3Embed\DJ\data\New Dj\new live\android vaidg doctor\druidx-android-doctor-app\lib\src\main\AndroidManifest.xml
	android:targetSdkVersion
		INJECTED from C:\Users\3Embed\DJ\data\New Dj\new live\android vaidg doctor\druidx-android-doctor-app\lib\src\main\AndroidManifest.xml
		ADDED from C:\Users\3Embed\DJ\data\New Dj\new live\android vaidg doctor\druidx-android-doctor-app\lib\src\main\AndroidManifest.xml
		INJECTED from C:\Users\3Embed\DJ\data\New Dj\new live\android vaidg doctor\druidx-android-doctor-app\lib\src\main\AndroidManifest.xml
	android:minSdkVersion
		INJECTED from C:\Users\3Embed\DJ\data\New Dj\new live\android vaidg doctor\druidx-android-doctor-app\lib\src\main\AndroidManifest.xml
		ADDED from C:\Users\3Embed\DJ\data\New Dj\new live\android vaidg doctor\druidx-android-doctor-app\lib\src\main\AndroidManifest.xml
		INJECTED from C:\Users\3Embed\DJ\data\New Dj\new live\android vaidg doctor\druidx-android-doctor-app\lib\src\main\AndroidManifest.xml
